   0.0000000e+00   2.2260000e-03
   1.0000000e-03   2.2317000e-03
   2.0000000e-03   2.2375000e-03
   3.0000000e-03   2.2433000e-03
   4.0000000e-03   2.2490000e-03
   5.0000000e-03   2.2548000e-03
   6.0000000e-03   2.2628000e-03
   7.0000000e-03   2.2708000e-03
   8.0000000e-03   2.2788000e-03
   9.0000000e-03   2.2867000e-03
   1.0000000e-02   2.2947000e-03
   1.1000000e-02   2.3024000e-03
   1.2000000e-02   2.3102000e-03
   1.3000000e-02   2.3179000e-03
   1.4000000e-02   2.3256000e-03
   1.5000000e-02   2.3313000e-03
   1.6000000e-02   2.3436000e-03
   1.7000000e-02   2.3497000e-03
   1.8000000e-02   2.3620000e-03
   1.9000000e-02   2.3681000e-03
   2.0000000e-02   2.3804000e-03
   2.1000000e-02   2.3865000e-03
   2.2000000e-02   2.3988000e-03
   2.3000000e-02   2.4049000e-03
   2.4000000e-02   2.4110000e-03
   2.5000000e-02   2.4233000e-03
   2.6000000e-02   2.4294000e-03
   2.7000000e-02   2.4417000e-03
   2.8000000e-02   2.4479000e-03
   2.9000000e-02   2.4540000e-03
   3.0000000e-02   2.4663000e-03
   3.1000000e-02   2.4724000e-03
   3.2000000e-02   2.4785000e-03
   3.3000000e-02   2.4908000e-03
   3.4000000e-02   2.4969000e-03
   3.5000000e-02   2.5092000e-03
   3.6000000e-02   2.5153000e-03
   3.7000000e-02   2.5276000e-03
   3.8000000e-02   2.5337000e-03
   3.9000000e-02   2.5460000e-03
   4.0000000e-02   2.5583000e-03
   4.1000000e-02   2.5644000e-03
   4.2000000e-02   2.5767000e-03
   4.3000000e-02   2.5828000e-03
   4.4000000e-02   2.5951000e-03
   4.5000000e-02   2.6012000e-03
   4.6000000e-02   2.6135000e-03
   4.7000000e-02   2.6196000e-03
   4.8000000e-02   2.6319000e-03
   4.9000000e-02   2.6380000e-03
   5.0000000e-02   2.6503000e-03
   5.1000000e-02   2.6626000e-03
   5.2000000e-02   2.6748000e-03
   5.3000000e-02   2.6810000e-03
   5.4000000e-02   2.6933000e-03
   5.5000000e-02   2.7055000e-03
   5.6000000e-02   2.7178000e-03
   5.7000000e-02   2.7239000e-03
   5.8000000e-02   2.7362000e-03
   5.9000000e-02   2.7485000e-03
   6.0000000e-02   2.7546000e-03
   6.1000000e-02   2.7669000e-03
   6.2000000e-02   2.7791000e-03
   6.3000000e-02   2.7914000e-03
   6.4000000e-02   2.7975000e-03
   6.5000000e-02   2.8098000e-03
   6.6000000e-02   2.8221000e-03
   6.7000000e-02   2.8344000e-03
   6.8000000e-02   2.8405000e-03
   6.9000000e-02   2.8528000e-03
   7.0000000e-02   2.8650000e-03
   7.1000000e-02   2.8773000e-03
   7.2000000e-02   2.8896000e-03
   7.3000000e-02   2.9018000e-03
   7.4000000e-02   2.9141000e-03
   7.5000000e-02   2.9264000e-03
   7.6000000e-02   2.9387000e-03
   7.7000000e-02   2.9509000e-03
   7.8000000e-02   2.9632000e-03
   7.9000000e-02   2.9755000e-03
   8.0000000e-02   2.9877000e-03
   8.1000000e-02   3.0000000e-03
   8.2000000e-02   3.0123000e-03
   8.3000000e-02   3.0245000e-03
   8.4000000e-02   3.0368000e-03
   8.5000000e-02   3.0429000e-03
   8.6000000e-02   3.0613000e-03
   8.7000000e-02   3.0736000e-03
   8.8000000e-02   3.0859000e-03
   8.9000000e-02   3.0982000e-03
   9.0000000e-02   3.1104000e-03
   9.1000000e-02   3.1227000e-03
   9.2000000e-02   3.1350000e-03
   9.3000000e-02   3.1534000e-03
   9.4000000e-02   3.1656000e-03
   9.5000000e-02   3.1779000e-03
   9.6000000e-02   3.1902000e-03
   9.7000000e-02   3.2086000e-03
   9.8000000e-02   3.2209000e-03
   9.9000000e-02   3.2331000e-03
   1.0000000e-01   3.2454000e-03
   1.0100000e-01   3.2638000e-03
   1.0200000e-01   3.2761000e-03
   1.0300000e-01   3.2883000e-03
   1.0400000e-01   3.3067000e-03
   1.0500000e-01   3.3190000e-03
   1.0600000e-01   3.3313000e-03
   1.0700000e-01   3.3497000e-03
   1.0800000e-01   3.3620000e-03
   1.0900000e-01   3.3742000e-03
   1.1000000e-01   3.3926000e-03
   1.1100000e-01   3.4049000e-03
   1.1200000e-01   3.4233000e-03
   1.1300000e-01   3.4417000e-03
   1.1400000e-01   3.4540000e-03
   1.1500000e-01   3.4724000e-03
   1.1600000e-01   3.4908000e-03
   1.1700000e-01   3.5031000e-03
   1.1800000e-01   3.5215000e-03
   1.1900000e-01   3.5399000e-03
   1.2000000e-01   3.5521000e-03
   1.2100000e-01   3.5706000e-03
   1.2200000e-01   3.5890000e-03
   1.2300000e-01   3.6012000e-03
   1.2400000e-01   3.6196000e-03
   1.2500000e-01   3.6319000e-03
   1.2600000e-01   3.6503000e-03
   1.2700000e-01   3.6687000e-03
   1.2800000e-01   3.6871000e-03
   1.2900000e-01   3.7055000e-03
   1.3000000e-01   3.7178000e-03
   1.3100000e-01   3.7362000e-03
   1.3200000e-01   3.7546000e-03
   1.3300000e-01   3.7730000e-03
   1.3400000e-01   3.7914000e-03
   1.3500000e-01   3.8098000e-03
   1.3600000e-01   3.8282000e-03
   1.3700000e-01   3.8528000e-03
   1.3800000e-01   3.8712000e-03
   1.3900000e-01   3.8896000e-03
   1.4000000e-01   3.9141000e-03
   1.4100000e-01   3.9325000e-03
   1.4200000e-01   3.9448000e-03
   1.4300000e-01   3.9632000e-03
   1.4400000e-01   3.9816000e-03
   1.4500000e-01   4.0000000e-03
   1.4600000e-01   4.0245000e-03
   1.4700000e-01   4.0429000e-03
   1.4800000e-01   4.0675000e-03
   1.4900000e-01   4.0859000e-03
   1.5000000e-01   4.1104000e-03
   1.5100000e-01   4.1288000e-03
   1.5200000e-01   4.1534000e-03
   1.5300000e-01   4.1718000e-03
   1.5400000e-01   4.1963000e-03
   1.5500000e-01   4.2147000e-03
   1.5600000e-01   4.2393000e-03
   1.5700000e-01   4.2577000e-03
   1.5800000e-01   4.2822000e-03
   1.5900000e-01   4.3067000e-03
   1.6000000e-01   4.3313000e-03
   1.6100000e-01   4.3497000e-03
   1.6200000e-01   4.3742000e-03
   1.6300000e-01   4.3988000e-03
   1.6400000e-01   4.4233000e-03
   1.6500000e-01   4.4479000e-03
   1.6600000e-01   4.4724000e-03
   1.6700000e-01   4.4908000e-03
   1.6800000e-01   4.5153000e-03
   1.6900000e-01   4.5337000e-03
   1.7000000e-01   4.5521000e-03
   1.7100000e-01   4.5828000e-03
   1.7200000e-01   4.6135000e-03
   1.7300000e-01   4.6442000e-03
   1.7400000e-01   4.6748000e-03
   1.7500000e-01   4.7055000e-03
   1.7600000e-01   4.7239000e-03
   1.7700000e-01   4.7485000e-03
   1.7800000e-01   4.7730000e-03
   1.7900000e-01   4.7975000e-03
   1.8000000e-01   4.8221000e-03
   1.8100000e-01   4.8528000e-03
   1.8200000e-01   4.8834000e-03
   1.8300000e-01   4.9141000e-03
   1.8400000e-01   4.9448000e-03
   1.8500000e-01   4.9755000e-03
   1.8600000e-01   5.0061000e-03
   1.8700000e-01   5.0368000e-03
   1.8800000e-01   5.0613000e-03
   1.8900000e-01   5.0920000e-03
   1.9000000e-01   5.1227000e-03
   1.9100000e-01   5.1534000e-03
   1.9200000e-01   5.1840000e-03
   1.9300000e-01   5.2147000e-03
   1.9400000e-01   5.2454000e-03
   1.9500000e-01   5.2761000e-03
   1.9600000e-01   5.3067000e-03
   1.9700000e-01   5.3436000e-03
   1.9800000e-01   5.3742000e-03
   1.9900000e-01   5.4049000e-03
   2.0000000e-01   5.4417000e-03
   2.0100000e-01   5.4724000e-03
   2.0200000e-01   5.5031000e-03
   2.0300000e-01   5.5399000e-03
   2.0400000e-01   5.5706000e-03
   2.0500000e-01   5.6074000e-03
   2.0600000e-01   5.6442000e-03
   2.0700000e-01   5.6810000e-03
   2.0800000e-01   5.7178000e-03
   2.0900000e-01   5.7546000e-03
   2.1000000e-01   5.7914000e-03
   2.1100000e-01   5.8282000e-03
   2.1200000e-01   5.8712000e-03
   2.1300000e-01   5.9080000e-03
   2.1400000e-01   5.9448000e-03
   2.1500000e-01   5.9816000e-03
   2.1600000e-01   6.0245000e-03
   2.1700000e-01   6.0675000e-03
   2.1800000e-01   6.1166000e-03
   2.1900000e-01   6.1350000e-03
   2.2000000e-01   6.1963000e-03
   2.2100000e-01   6.2577000e-03
   2.2200000e-01   6.2577000e-03
   2.2300000e-01   6.3190000e-03
   2.2400000e-01   6.3804000e-03
   2.2500000e-01   6.3804000e-03
   2.2600000e-01   6.4417000e-03
   2.2700000e-01   6.5031000e-03
   2.2800000e-01   6.5644000e-03
   2.2900000e-01   6.5644000e-03
   2.3000000e-01   6.6258000e-03
   2.3100000e-01   6.6871000e-03
   2.3200000e-01   6.7485000e-03
   2.3300000e-01   6.8098000e-03
   2.3400000e-01   6.8098000e-03
   2.3500000e-01   6.8712000e-03
   2.3600000e-01   6.9325000e-03
   2.3700000e-01   6.9939000e-03
   2.3800000e-01   7.0552000e-03
   2.3900000e-01   7.0552000e-03
   2.4000000e-01   7.1166000e-03
   2.4100000e-01   7.1779000e-03
   2.4200000e-01   7.2393000e-03
   2.4300000e-01   7.3006000e-03
   2.4400000e-01   7.3620000e-03
   2.4500000e-01   7.4233000e-03
   2.4600000e-01   7.4847000e-03
   2.4700000e-01   7.5460000e-03
   2.4800000e-01   7.5460000e-03
   2.4900000e-01   7.6074000e-03
   2.5000000e-01   7.6687000e-03
   2.5100000e-01   7.7301000e-03
   2.5200000e-01   7.7914000e-03
   2.5300000e-01   7.8528000e-03
   2.5400000e-01   7.9141000e-03
   2.5500000e-01   7.9755000e-03
   2.5600000e-01   8.0368000e-03
   2.5700000e-01   8.1595000e-03
   2.5800000e-01   8.2209000e-03
   2.5900000e-01   8.2822000e-03
   2.6000000e-01   8.3436000e-03
   2.6100000e-01   8.4049000e-03
   2.6200000e-01   8.4663000e-03
   2.6300000e-01   8.5276000e-03
   2.6400000e-01   8.5890000e-03
   2.6500000e-01   8.6503000e-03
   2.6600000e-01   8.7117000e-03
   2.6700000e-01   8.8344000e-03
   2.6800000e-01   8.8957000e-03
   2.6900000e-01   8.9571000e-03
   2.7000000e-01   9.0184000e-03
   2.7100000e-01   9.1411000e-03
   2.7200000e-01   9.2025000e-03
   2.7300000e-01   9.2638000e-03
   2.7400000e-01   9.3865000e-03
   2.7500000e-01   9.4479000e-03
   2.7600000e-01   9.5092000e-03
   2.7700000e-01   9.6319000e-03
   2.7800000e-01   9.6933000e-03
   2.7900000e-01   9.7546000e-03
   2.8000000e-01   9.8773000e-03
   2.8100000e-01   9.9387000e-03
   2.8200000e-01   1.0061000e-02
   2.8300000e-01   1.0123000e-02
   2.8400000e-01   1.0245000e-02
   2.8500000e-01   1.0307000e-02
   2.8600000e-01   1.0429000e-02
   2.8700000e-01   1.0491000e-02
   2.8800000e-01   1.0613000e-02
   2.8900000e-01   1.0675000e-02
   2.9000000e-01   1.0798000e-02
   2.9100000e-01   1.0920000e-02
   2.9200000e-01   1.0982000e-02
   2.9300000e-01   1.1104000e-02
   2.9400000e-01   1.1227000e-02
   2.9500000e-01   1.1288000e-02
   2.9600000e-01   1.1411000e-02
   2.9700000e-01   1.1534000e-02
   2.9800000e-01   1.1656000e-02
   2.9900000e-01   1.1779000e-02
   3.0000000e-01   1.1840000e-02
   3.0100000e-01   1.1963000e-02
   3.0200000e-01   1.2086000e-02
   3.0300000e-01   1.2209000e-02
   3.0400000e-01   1.2331000e-02
   3.0500000e-01   1.2454000e-02
   3.0600000e-01   1.2577000e-02
   3.0700000e-01   1.2761000e-02
   3.0800000e-01   1.2883000e-02
   3.0900000e-01   1.3006000e-02
   3.1000000e-01   1.3129000e-02
   3.1100000e-01   1.3252000e-02
   3.1200000e-01   1.3374000e-02
   3.1300000e-01   1.3558000e-02
   3.1400000e-01   1.3681000e-02
   3.1500000e-01   1.3804000e-02
   3.1600000e-01   1.3988000e-02
   3.1700000e-01   1.4110000e-02
   3.1800000e-01   1.4294000e-02
   3.1900000e-01   1.4417000e-02
   3.2000000e-01   1.4601000e-02
   3.2100000e-01   1.4724000e-02
   3.2200000e-01   1.4908000e-02
   3.2300000e-01   1.5092000e-02
   3.2400000e-01   1.5215000e-02
   3.2500000e-01   1.5399000e-02
   3.2600000e-01   1.5583000e-02
   3.2700000e-01   1.5767000e-02
   3.2800000e-01   1.5890000e-02
   3.2900000e-01   1.6074000e-02
   3.3000000e-01   1.6258000e-02
   3.3100000e-01   1.6442000e-02
   3.3200000e-01   1.6626000e-02
   3.3300000e-01   1.6810000e-02
   3.3400000e-01   1.6994000e-02
   3.3500000e-01   1.7178000e-02
   3.3600000e-01   1.7423000e-02
   3.3700000e-01   1.7607000e-02
   3.3800000e-01   1.7853000e-02
   3.3900000e-01   1.8037000e-02
   3.4000000e-01   1.8282000e-02
   3.4100000e-01   1.8466000e-02
   3.4200000e-01   1.8712000e-02
   3.4300000e-01   1.8896000e-02
   3.4400000e-01   1.9141000e-02
   3.4500000e-01   1.9387000e-02
   3.4600000e-01   1.9632000e-02
   3.4700000e-01   1.9877000e-02
   3.4800000e-01   2.0123000e-02
   3.4900000e-01   2.0368000e-02
   3.5000000e-01   2.0613000e-02
   3.5100000e-01   2.0920000e-02
   3.5200000e-01   2.1166000e-02
   3.5300000e-01   2.1411000e-02
   3.5400000e-01   2.1718000e-02
   3.5500000e-01   2.1963000e-02
   3.5600000e-01   2.2270000e-02
   3.5700000e-01   2.2577000e-02
   3.5800000e-01   2.2822000e-02
   3.5900000e-01   2.3129000e-02
   3.6000000e-01   2.3436000e-02
   3.6100000e-01   2.3742000e-02
   3.6200000e-01   2.4049000e-02
   3.6300000e-01   2.4417000e-02
   3.6400000e-01   2.4724000e-02
   3.6500000e-01   2.5031000e-02
   3.6600000e-01   2.5399000e-02
   3.6700000e-01   2.5767000e-02
   3.6800000e-01   2.6074000e-02
   3.6900000e-01   2.6442000e-02
   3.7000000e-01   2.6810000e-02
   3.7100000e-01   2.7178000e-02
   3.7200000e-01   2.7546000e-02
   3.7300000e-01   2.7914000e-02
   3.7400000e-01   2.8344000e-02
   3.7500000e-01   2.8712000e-02
   3.7600000e-01   2.9141000e-02
   3.7700000e-01   2.9571000e-02
   3.7800000e-01   3.0000000e-02
   3.7900000e-01   3.0429000e-02
   3.8000000e-01   3.0859000e-02
   3.8100000e-01   3.1288000e-02
   3.8200000e-01   3.1779000e-02
   3.8300000e-01   3.2270000e-02
   3.8400000e-01   3.2699000e-02
   3.8500000e-01   3.3190000e-02
   3.8600000e-01   3.3681000e-02
   3.8700000e-01   3.4233000e-02
   3.8800000e-01   3.4724000e-02
   3.8900000e-01   3.5276000e-02
   3.9000000e-01   3.5767000e-02
   3.9100000e-01   3.6319000e-02
   3.9200000e-01   3.6933000e-02
   3.9300000e-01   3.7485000e-02
   3.9400000e-01   3.8037000e-02
   3.9500000e-01   3.8650000e-02
   3.9600000e-01   3.9264000e-02
   3.9700000e-01   3.9877000e-02
   3.9800000e-01   4.0552000e-02
   3.9900000e-01   4.1166000e-02
   4.0000000e-01   4.1840000e-02
   4.0100000e-01   4.2515000e-02
   4.0200000e-01   4.3252000e-02
   4.0300000e-01   4.3926000e-02
   4.0400000e-01   4.4601000e-02
   4.0500000e-01   4.5337000e-02
   4.0600000e-01   4.6135000e-02
   4.0700000e-01   4.6933000e-02
   4.0800000e-01   4.7669000e-02
   4.0900000e-01   4.8466000e-02
   4.1000000e-01   4.9264000e-02
   4.1100000e-01   5.0123000e-02
   4.1200000e-01   5.1043000e-02
   4.1300000e-01   5.1902000e-02
   4.1400000e-01   5.2761000e-02
   4.1500000e-01   5.3620000e-02
   4.1600000e-01   5.4601000e-02
   4.1700000e-01   5.5583000e-02
   4.1800000e-01   5.6564000e-02
   4.1900000e-01   5.7546000e-02
   4.2000000e-01   5.8528000e-02
   4.2100000e-01   5.9632000e-02
   4.2200000e-01   6.0736000e-02
   4.2300000e-01   6.1963000e-02
   4.2400000e-01   6.3190000e-02
   4.2500000e-01   6.3804000e-02
   4.2600000e-01   6.5031000e-02
   4.2700000e-01   6.6258000e-02
   4.2800000e-01   6.7485000e-02
   4.2900000e-01   6.8712000e-02
   4.3000000e-01   6.9939000e-02
   4.3100000e-01   7.1779000e-02
   4.3200000e-01   7.3006000e-02
   4.3300000e-01   7.4233000e-02
   4.3400000e-01   7.5460000e-02
   4.3500000e-01   7.7301000e-02
   4.3600000e-01   7.8528000e-02
   4.3700000e-01   8.0368000e-02
   4.3800000e-01   8.1595000e-02
   4.3900000e-01   8.3436000e-02
   4.4000000e-01   8.4663000e-02
   4.4100000e-01   8.6503000e-02
   4.4200000e-01   8.8344000e-02
   4.4300000e-01   9.0184000e-02
   4.4400000e-01   9.2025000e-02
   4.4500000e-01   9.3865000e-02
   4.4600000e-01   9.5706000e-02
   4.4700000e-01   9.7546000e-02
   4.4800000e-01   9.9387000e-02
   4.4900000e-01   1.0184000e-01
   4.5000000e-01   1.0368000e-01
   4.5100000e-01   1.0613000e-01
   4.5200000e-01   1.0798000e-01
   4.5300000e-01   1.1043000e-01
   4.5400000e-01   1.1288000e-01
   4.5500000e-01   1.1472000e-01
   4.5600000e-01   1.1718000e-01
   4.5700000e-01   1.2025000e-01
   4.5800000e-01   1.2270000e-01
   4.5900000e-01   1.2515000e-01
   4.6000000e-01   1.2761000e-01
   4.6100000e-01   1.3067000e-01
   4.6200000e-01   1.3374000e-01
   4.6300000e-01   1.3681000e-01
   4.6400000e-01   1.3926000e-01
   4.6500000e-01   1.4233000e-01
   4.6600000e-01   1.4540000e-01
   4.6700000e-01   1.4908000e-01
   4.6800000e-01   1.5215000e-01
   4.6900000e-01   1.5521000e-01
   4.7000000e-01   1.5828000e-01
   4.7100000e-01   1.6196000e-01
   4.7200000e-01   1.6626000e-01
   4.7300000e-01   1.6994000e-01
   4.7400000e-01   1.7362000e-01
   4.7500000e-01   1.7730000e-01
   4.7600000e-01   1.8160000e-01
   4.7700000e-01   1.8589000e-01
   4.7800000e-01   1.8957000e-01
   4.7900000e-01   1.9387000e-01
   4.8000000e-01   1.9816000e-01
   4.8100000e-01   2.0307000e-01
   4.8200000e-01   2.0798000e-01
   4.8300000e-01   2.1288000e-01
   4.8400000e-01   2.1779000e-01
   4.8500000e-01   2.2270000e-01
   4.8600000e-01   2.2822000e-01
   4.8700000e-01   2.3374000e-01
   4.8800000e-01   2.3926000e-01
   4.8900000e-01   2.4479000e-01
   4.9000000e-01   2.5031000e-01
   4.9100000e-01   2.5644000e-01
   4.9200000e-01   2.6258000e-01
   4.9300000e-01   2.6871000e-01
   4.9400000e-01   2.7423000e-01
   4.9500000e-01   2.8037000e-01
   4.9600000e-01   2.8773000e-01
   4.9700000e-01   2.9448000e-01
   4.9800000e-01   3.0123000e-01
   4.9900000e-01   3.0798000e-01
   5.0000000e-01   3.1534000e-01
   5.0100000e-01   3.2270000e-01
   5.0200000e-01   3.3067000e-01
   5.0300000e-01   3.3804000e-01
   5.0400000e-01   3.4601000e-01
   5.0500000e-01   3.5337000e-01
   5.0600000e-01   3.6196000e-01
   5.0700000e-01   3.7117000e-01
   5.0800000e-01   3.7975000e-01
   5.0900000e-01   3.8834000e-01
   5.1000000e-01   3.9693000e-01
   5.1100000e-01   4.0675000e-01
   5.1200000e-01   4.1595000e-01
   5.1300000e-01   4.2577000e-01
   5.1400000e-01   4.3497000e-01
   5.1500000e-01   4.4479000e-01
   5.1600000e-01   4.5460000e-01
   5.1700000e-01   4.6503000e-01
   5.1800000e-01   4.7546000e-01
   5.1900000e-01   4.8528000e-01
   5.2000000e-01   4.9571000e-01
   5.2100000e-01   5.0429000e-01
   5.2200000e-01   5.1472000e-01
   5.2300000e-01   5.2454000e-01
   5.2400000e-01   5.3497000e-01
   5.2500000e-01   5.4540000e-01
   5.2600000e-01   5.5521000e-01
   5.2700000e-01   5.6503000e-01
   5.2800000e-01   5.7423000e-01
   5.2900000e-01   5.8405000e-01
   5.3000000e-01   5.9325000e-01
   5.3100000e-01   6.0307000e-01
   5.3200000e-01   6.1166000e-01
   5.3300000e-01   6.2025000e-01
   5.3400000e-01   6.2883000e-01
   5.3500000e-01   6.3804000e-01
   5.3600000e-01   6.4663000e-01
   5.3700000e-01   6.5399000e-01
   5.3800000e-01   6.6196000e-01
   5.3900000e-01   6.6933000e-01
   5.4000000e-01   6.7730000e-01
   5.4100000e-01   6.8466000e-01
   5.4200000e-01   6.9202000e-01
   5.4300000e-01   6.9877000e-01
   5.4400000e-01   7.0552000e-01
   5.4500000e-01   7.1227000e-01
   5.4600000e-01   7.1963000e-01
   5.4700000e-01   7.2577000e-01
   5.4800000e-01   7.3129000e-01
   5.4900000e-01   7.3742000e-01
   5.5000000e-01   7.4356000e-01
   5.5100000e-01   7.4969000e-01
   5.5200000e-01   7.5521000e-01
   5.5300000e-01   7.6074000e-01
   5.5400000e-01   7.6626000e-01
   5.5500000e-01   7.7178000e-01
   5.5600000e-01   7.7730000e-01
   5.5700000e-01   7.8221000e-01
   5.5800000e-01   7.8712000e-01
   5.5900000e-01   7.9202000e-01
   5.6000000e-01   7.9693000e-01
   5.6100000e-01   8.0184000e-01
   5.6200000e-01   8.0613000e-01
   5.6300000e-01   8.1043000e-01
   5.6400000e-01   8.1411000e-01
   5.6500000e-01   8.1840000e-01
   5.6600000e-01   8.2270000e-01
   5.6700000e-01   8.2638000e-01
   5.6800000e-01   8.3006000e-01
   5.6900000e-01   8.3374000e-01
   5.7000000e-01   8.3804000e-01
   5.7100000e-01   8.4172000e-01
   5.7200000e-01   8.4479000e-01
   5.7300000e-01   8.4785000e-01
   5.7400000e-01   8.5092000e-01
   5.7500000e-01   8.5460000e-01
   5.7600000e-01   8.5767000e-01
   5.7700000e-01   8.6074000e-01
   5.7800000e-01   8.6319000e-01
   5.7900000e-01   8.6626000e-01
   5.8000000e-01   8.6933000e-01
   5.8100000e-01   8.7239000e-01
   5.8200000e-01   8.7485000e-01
   5.8300000e-01   8.7730000e-01
   5.8400000e-01   8.7975000e-01
   5.8500000e-01   8.8282000e-01
   5.8600000e-01   8.8528000e-01
   5.8700000e-01   8.8712000e-01
   5.8800000e-01   8.8957000e-01
   5.8900000e-01   8.9202000e-01
   5.9000000e-01   8.9387000e-01
   5.9100000e-01   8.9632000e-01
   5.9200000e-01   8.9816000e-01
   5.9300000e-01   9.0061300e-01
   5.9400000e-01   9.0245400e-01
   5.9500000e-01   9.0429400e-01
   5.9600000e-01   9.0613500e-01
   5.9700000e-01   9.0797500e-01
   5.9800000e-01   9.0981600e-01
   5.9900000e-01   9.1165600e-01
   6.0000000e-01   9.1349700e-01
   6.0100000e-01   9.1533700e-01
   6.0200000e-01   9.1656400e-01
   6.0300000e-01   9.1840500e-01
   6.0400000e-01   9.1963200e-01
   6.0500000e-01   9.2147200e-01
   6.0600000e-01   9.2269900e-01
   6.0700000e-01   9.2454000e-01
   6.0800000e-01   9.2576700e-01
   6.0900000e-01   9.2699400e-01
   6.1000000e-01   9.2822100e-01
   6.1100000e-01   9.3006100e-01
   6.1200000e-01   9.3128800e-01
   6.1300000e-01   9.3251500e-01
   6.1400000e-01   9.3374200e-01
   6.1500000e-01   9.3496900e-01
   6.1600000e-01   9.3619600e-01
   6.1700000e-01   9.3681000e-01
   6.1800000e-01   9.3803700e-01
   6.1900000e-01   9.3926400e-01
   6.2000000e-01   9.4036800e-01
   6.2100000e-01   9.4147200e-01
   6.2200000e-01   9.4245400e-01
   6.2300000e-01   9.4343600e-01
   6.2400000e-01   9.4441700e-01
   6.2500000e-01   9.4539900e-01
   6.2600000e-01   9.4638000e-01
   6.2700000e-01   9.4723900e-01
   6.2800000e-01   9.4809800e-01
   6.2900000e-01   9.4895700e-01
   6.3000000e-01   9.4987700e-01
   6.3100000e-01   9.5073600e-01
   6.3200000e-01   9.5153400e-01
   6.3300000e-01   9.5233100e-01
   6.3400000e-01   9.5306700e-01
   6.3500000e-01   9.5386500e-01
   6.3600000e-01   9.5466300e-01
   6.3700000e-01   9.5539900e-01
   6.3800000e-01   9.5607400e-01
   6.3900000e-01   9.5674800e-01
   6.4000000e-01   9.5748500e-01
   6.4100000e-01   9.5816000e-01
   6.4200000e-01   9.5883400e-01
   6.4300000e-01   9.5944800e-01
   6.4400000e-01   9.6012300e-01
   6.4500000e-01   9.6073600e-01
   6.4600000e-01   9.6135000e-01
   6.4700000e-01   9.6196300e-01
   6.4800000e-01   9.6251500e-01
   6.4900000e-01   9.6306700e-01
   6.5000000e-01   9.6368100e-01
   6.5100000e-01   9.6423300e-01
   6.5200000e-01   9.6472400e-01
   6.5300000e-01   9.6527600e-01
   6.5400000e-01   9.6576700e-01
   6.5500000e-01   9.6631900e-01
   6.5600000e-01   9.6681000e-01
   6.5700000e-01   9.6730100e-01
   6.5800000e-01   9.6773000e-01
   6.5900000e-01   9.6822100e-01
   6.6000000e-01   9.6871200e-01
   6.6100000e-01   9.6914100e-01
   6.6200000e-01   9.6957100e-01
   6.6300000e-01   9.7000000e-01
   6.6400000e-01   9.7042900e-01
   6.6500000e-01   9.7085900e-01
   6.6600000e-01   9.7128800e-01
   6.6700000e-01   9.7165600e-01
   6.6800000e-01   9.7208600e-01
   6.6900000e-01   9.7245400e-01
   6.7000000e-01   9.7282200e-01
   6.7100000e-01   9.7319000e-01
   6.7200000e-01   9.7355800e-01
   6.7300000e-01   9.7392600e-01
   6.7400000e-01   9.7423300e-01
   6.7500000e-01   9.7460100e-01
   6.7600000e-01   9.7496900e-01
   6.7700000e-01   9.7527600e-01
   6.7800000e-01   9.7558300e-01
   6.7900000e-01   9.7595100e-01
   6.8000000e-01   9.7625800e-01
   6.8100000e-01   9.7656400e-01
   6.8200000e-01   9.7687100e-01
   6.8300000e-01   9.7717800e-01
   6.8400000e-01   9.7742300e-01
   6.8500000e-01   9.7773000e-01
   6.8600000e-01   9.7803700e-01
   6.8700000e-01   9.7828200e-01
   6.8800000e-01   9.7858900e-01
   6.8900000e-01   9.7883400e-01
   6.9000000e-01   9.7908000e-01
   6.9100000e-01   9.7938700e-01
   6.9200000e-01   9.7963200e-01
   6.9300000e-01   9.7987700e-01
   6.9400000e-01   9.8012300e-01
   6.9500000e-01   9.8036800e-01
   6.9600000e-01   9.8061300e-01
   6.9700000e-01   9.8085900e-01
   6.9800000e-01   9.8110400e-01
   6.9900000e-01   9.8128800e-01
   7.0000000e-01   9.8153400e-01
   7.0100000e-01   9.8171800e-01
   7.0200000e-01   9.8196300e-01
   7.0300000e-01   9.8214700e-01
   7.0400000e-01   9.8239300e-01
   7.0500000e-01   9.8257700e-01
   7.0600000e-01   9.8282200e-01
   7.0700000e-01   9.8300600e-01
   7.0800000e-01   9.8319000e-01
   7.0900000e-01   9.8337400e-01
   7.1000000e-01   9.8355800e-01
   7.1100000e-01   9.8374200e-01
   7.1200000e-01   9.8392600e-01
   7.1300000e-01   9.8411000e-01
   7.1400000e-01   9.8423300e-01
   7.1500000e-01   9.8441700e-01
   7.1600000e-01   9.8460100e-01
   7.1700000e-01   9.8478500e-01
   7.1800000e-01   9.8490800e-01
   7.1900000e-01   9.8509200e-01
   7.2000000e-01   9.8527600e-01
   7.2100000e-01   9.8539900e-01
   7.2200000e-01   9.8558300e-01
   7.2300000e-01   9.8570600e-01
   7.2400000e-01   9.8589000e-01
   7.2500000e-01   9.8601200e-01
   7.2600000e-01   9.8619600e-01
   7.2700000e-01   9.8631900e-01
   7.2800000e-01   9.8644200e-01
   7.2900000e-01   9.8662600e-01
   7.3000000e-01   9.8674800e-01
   7.3100000e-01   9.8687100e-01
   7.3200000e-01   9.8699400e-01
   7.3300000e-01   9.8711700e-01
   7.3400000e-01   9.8723900e-01
   7.3500000e-01   9.8742300e-01
   7.3600000e-01   9.8754600e-01
   7.3700000e-01   9.8766900e-01
   7.3800000e-01   9.8779100e-01
   7.3900000e-01   9.8791400e-01
   7.4000000e-01   9.8803700e-01
   7.4100000e-01   9.8816000e-01
   7.4200000e-01   9.8822100e-01
   7.4300000e-01   9.8834400e-01
   7.4400000e-01   9.8846600e-01
   7.4500000e-01   9.8858900e-01
   7.4600000e-01   9.8871200e-01
   7.4700000e-01   9.8877300e-01
   7.4800000e-01   9.8889600e-01
   7.4900000e-01   9.8901800e-01
   7.5000000e-01   9.8908000e-01
   7.5100000e-01   9.8920200e-01
   7.5200000e-01   9.8932500e-01
   7.5300000e-01   9.8938700e-01
   7.5400000e-01   9.8950900e-01
   7.5500000e-01   9.8957100e-01
   7.5600000e-01   9.8969300e-01
   7.5700000e-01   9.8975500e-01
   7.5800000e-01   9.8987700e-01
   7.5900000e-01   9.8993900e-01
   7.6000000e-01   9.9006130e-01
   7.6100000e-01   9.9012270e-01
   7.6200000e-01   9.9024540e-01
   7.6300000e-01   9.9030670e-01
   7.6400000e-01   9.9036810e-01
   7.6500000e-01   9.9049080e-01
   7.6600000e-01   9.9055210e-01
   7.6700000e-01   9.9061350e-01
   7.6800000e-01   9.9073620e-01
   7.6900000e-01   9.9079750e-01
   7.7000000e-01   9.9085890e-01
   7.7100000e-01   9.9098160e-01
   7.7200000e-01   9.9104290e-01
   7.7300000e-01   9.9110430e-01
   7.7400000e-01   9.9116560e-01
   7.7500000e-01   9.9128830e-01
   7.7600000e-01   9.9134970e-01
   7.7700000e-01   9.9141100e-01
   7.7800000e-01   9.9147240e-01
   7.7900000e-01   9.9153370e-01
   7.8000000e-01   9.9159510e-01
   7.8100000e-01   9.9165640e-01
   7.8200000e-01   9.9171780e-01
   7.8300000e-01   9.9177910e-01
   7.8400000e-01   9.9184050e-01
   7.8500000e-01   9.9196320e-01
   7.8600000e-01   9.9202450e-01
   7.8700000e-01   9.9208590e-01
   7.8800000e-01   9.9214720e-01
   7.8900000e-01   9.9220860e-01
   7.9000000e-01   9.9226990e-01
   7.9100000e-01   9.9233130e-01
   7.9200000e-01   9.9239260e-01
   7.9300000e-01   9.9245400e-01
   7.9400000e-01   9.9245400e-01
   7.9500000e-01   9.9251530e-01
   7.9600000e-01   9.9257670e-01
   7.9700000e-01   9.9263800e-01
   7.9800000e-01   9.9269940e-01
   7.9900000e-01   9.9276070e-01
   8.0000000e-01   9.9282210e-01
   8.0100000e-01   9.9288340e-01
   8.0200000e-01   9.9294480e-01
   8.0300000e-01   9.9294480e-01
   8.0400000e-01   9.9300610e-01
   8.0500000e-01   9.9306750e-01
   8.0600000e-01   9.9312880e-01
   8.0700000e-01   9.9319020e-01
   8.0800000e-01   9.9319020e-01
   8.0900000e-01   9.9325150e-01
   8.1000000e-01   9.9331290e-01
   8.1100000e-01   9.9337420e-01
   8.1200000e-01   9.9343560e-01
   8.1300000e-01   9.9343560e-01
   8.1400000e-01   9.9349690e-01
   8.1500000e-01   9.9355830e-01
   8.1600000e-01   9.9361960e-01
   8.1700000e-01   9.9361960e-01
   8.1800000e-01   9.9368100e-01
   8.1900000e-01   9.9374230e-01
   8.2000000e-01   9.9374230e-01
   8.2100000e-01   9.9380370e-01
   8.2200000e-01   9.9386500e-01
   8.2300000e-01   9.9388340e-01
   8.2400000e-01   9.9393250e-01
   8.2500000e-01   9.9397550e-01
   8.2600000e-01   9.9401840e-01
   8.2700000e-01   9.9405520e-01
   8.2800000e-01   9.9409200e-01
   8.2900000e-01   9.9412880e-01
   8.3000000e-01   9.9417180e-01
   8.3100000e-01   9.9420860e-01
   8.3200000e-01   9.9424540e-01
   8.3300000e-01   9.9428220e-01
   8.3400000e-01   9.9431900e-01
   8.3500000e-01   9.9435580e-01
   8.3600000e-01   9.9439260e-01
   8.3700000e-01   9.9442940e-01
   8.3800000e-01   9.9446010e-01
   8.3900000e-01   9.9449690e-01
   8.4000000e-01   9.9452760e-01
   8.4100000e-01   9.9455830e-01
   8.4200000e-01   9.9459510e-01
   8.4300000e-01   9.9462580e-01
   8.4400000e-01   9.9465640e-01
   8.4500000e-01   9.9469330e-01
   8.4600000e-01   9.9472390e-01
   8.4700000e-01   9.9475460e-01
   8.4800000e-01   9.9478530e-01
   8.4900000e-01   9.9481600e-01
   8.5000000e-01   9.9484660e-01
   8.5100000e-01   9.9487730e-01
   8.5200000e-01   9.9490800e-01
   8.5300000e-01   9.9493870e-01
   8.5400000e-01   9.9496320e-01
   8.5500000e-01   9.9499390e-01
   8.5600000e-01   9.9502450e-01
   8.5700000e-01   9.9505520e-01
   8.5800000e-01   9.9508590e-01
   8.5900000e-01   9.9511660e-01
   8.6000000e-01   9.9514720e-01
   8.6100000e-01   9.9517790e-01
   8.6200000e-01   9.9520250e-01
   8.6300000e-01   9.9522700e-01
   8.6400000e-01   9.9525150e-01
   8.6500000e-01   9.9527610e-01
   8.6600000e-01   9.9529450e-01
   8.6700000e-01   9.9532520e-01
   8.6800000e-01   9.9535580e-01
   8.6900000e-01   9.9538650e-01
   8.7000000e-01   9.9541720e-01
   8.7100000e-01   9.9544790e-01
   8.7200000e-01   9.9546630e-01
   8.7300000e-01   9.9548470e-01
   8.7400000e-01   9.9550920e-01
   8.7500000e-01   9.9552760e-01
   8.7600000e-01   9.9555210e-01
   8.7700000e-01   9.9557670e-01
   8.7800000e-01   9.9560120e-01
   8.7900000e-01   9.9562580e-01
   8.8000000e-01   9.9565030e-01
   8.8100000e-01   9.9566870e-01
   8.8200000e-01   9.9569330e-01
   8.8300000e-01   9.9571780e-01
   8.8400000e-01   9.9574230e-01
   8.8500000e-01   9.9576070e-01
   8.8600000e-01   9.9578530e-01
   8.8700000e-01   9.9580370e-01
   8.8800000e-01   9.9582820e-01
   8.8900000e-01   9.9584660e-01
   8.9000000e-01   9.9587120e-01
   8.9100000e-01   9.9588960e-01
   8.9200000e-01   9.9591410e-01
   8.9300000e-01   9.9593250e-01
   8.9400000e-01   9.9595710e-01
   8.9500000e-01   9.9597550e-01
   8.9600000e-01   9.9600000e-01
   8.9700000e-01   9.9601840e-01
   8.9800000e-01   9.9603680e-01
   8.9900000e-01   9.9605520e-01
   9.0000000e-01   9.9606750e-01
   9.0100000e-01   9.9608590e-01
   9.0200000e-01   9.9611040e-01
   9.0300000e-01   9.9612880e-01
   9.0400000e-01   9.9614720e-01
   9.0500000e-01   9.9617180e-01
   9.0600000e-01   9.9619020e-01
   9.0700000e-01   9.9620860e-01
   9.0800000e-01   9.9622700e-01
   9.0900000e-01   9.9624540e-01
   9.1000000e-01   9.9626380e-01
   9.1100000e-01   9.9628220e-01
   9.1200000e-01   9.9629450e-01
   9.1300000e-01   9.9631290e-01
   9.1400000e-01   9.9633130e-01
   9.1500000e-01   9.9634970e-01
   9.1600000e-01   9.9636810e-01
   9.1700000e-01   9.9638040e-01
   9.1800000e-01   9.9639880e-01
   9.1900000e-01   9.9641100e-01
   9.2000000e-01   9.9642940e-01
   9.2100000e-01   9.9644790e-01
   9.2200000e-01   9.9646010e-01
   9.2300000e-01   9.9647850e-01
   9.2400000e-01   9.9649690e-01
   9.2500000e-01   9.9650920e-01
   9.2600000e-01   9.9652760e-01
   9.2700000e-01   9.9654600e-01
   9.2800000e-01   9.9655830e-01
   9.2900000e-01   9.9657670e-01
   9.3000000e-01   9.9659510e-01
   9.3100000e-01   9.9660740e-01
   9.3200000e-01   9.9662580e-01
   9.3300000e-01   9.9663800e-01
   9.3400000e-01   9.9665030e-01
   9.3500000e-01   9.9666870e-01
   9.3600000e-01   9.9668100e-01
   9.3700000e-01   9.9669330e-01
   9.3800000e-01   9.9671170e-01
   9.3900000e-01   9.9672390e-01
   9.4000000e-01   9.9673620e-01
   9.4100000e-01   9.9675460e-01
   9.4200000e-01   9.9676690e-01
   9.4300000e-01   9.9677910e-01
   9.4400000e-01   9.9679140e-01
   9.4500000e-01   9.9680980e-01
   9.4600000e-01   9.9682210e-01
   9.4700000e-01   9.9683440e-01
   9.4800000e-01   9.9684660e-01
   9.4900000e-01   9.9686500e-01
   9.5000000e-01   9.9687730e-01
   9.5100000e-01   9.9688960e-01
   9.5200000e-01   9.9690180e-01
   9.5300000e-01   9.9691410e-01
   9.5400000e-01   9.9692640e-01
   9.5500000e-01   9.9693870e-01
   9.5600000e-01   9.9695710e-01
   9.5700000e-01   9.9696320e-01
   9.5800000e-01   9.9697550e-01
   9.5900000e-01   9.9698770e-01
   9.6000000e-01   9.9700000e-01
   9.6100000e-01   9.9701230e-01
   9.6200000e-01   9.9702450e-01
   9.6300000e-01   9.9703680e-01
   9.6400000e-01   9.9704910e-01
   9.6500000e-01   9.9706130e-01
   9.6600000e-01   9.9707360e-01
   9.6700000e-01   9.9708590e-01
   9.6800000e-01   9.9709820e-01
   9.6900000e-01   9.9711040e-01
   9.7000000e-01   9.9712270e-01
   9.7100000e-01   9.9713500e-01
   9.7200000e-01   9.9714720e-01
   9.7300000e-01   9.9715950e-01
   9.7400000e-01   9.9716560e-01
   9.7500000e-01   9.9717790e-01
   9.7600000e-01   9.9719020e-01
   9.7700000e-01   9.9720250e-01
   9.7800000e-01   9.9720860e-01
   9.7900000e-01   9.9722090e-01
   9.8000000e-01   9.9723310e-01
   9.8100000e-01   9.9724540e-01
   9.8200000e-01   9.9725150e-01
   9.8300000e-01   9.9726380e-01
   9.8400000e-01   9.9727610e-01
   9.8500000e-01   9.9728220e-01
   9.8600000e-01   9.9729450e-01
   9.8700000e-01   9.9730670e-01
   9.8800000e-01   9.9731900e-01
   9.8900000e-01   9.9732520e-01
   9.9000000e-01   9.9733740e-01
   9.9100000e-01   9.9734970e-01
   9.9200000e-01   9.9736200e-01
   9.9300000e-01   9.9736810e-01
   9.9400000e-01   9.9738040e-01
   9.9500000e-01   9.9738650e-01
   9.9600000e-01   9.9739880e-01
   9.9700000e-01   9.9740490e-01
   9.9800000e-01   9.9741720e-01
   9.9900000e-01   9.9742330e-01
   1.0000000e+00   9.9743560e-01
   1.0010000e+00   9.9744170e-01
   1.0020000e+00   9.9745400e-01
   1.0030000e+00   9.9746630e-01
   1.0040000e+00   9.9747240e-01
   1.0050000e+00   9.9748470e-01
   1.0060000e+00   9.9749080e-01
   1.0070000e+00   9.9750310e-01
   1.0080000e+00   9.9750920e-01
   1.0090000e+00   9.9752150e-01
   1.0100000e+00   9.9752760e-01
   1.0110000e+00   9.9753370e-01
   1.0120000e+00   9.9754600e-01
   1.0130000e+00   9.9755210e-01
   1.0140000e+00   9.9755830e-01
   1.0150000e+00   9.9757060e-01
   1.0160000e+00   9.9757670e-01
   1.0170000e+00   9.9758900e-01
   1.0180000e+00   9.9759510e-01
   1.0190000e+00   9.9760120e-01
   1.0200000e+00   9.9761350e-01
   1.0210000e+00   9.9761960e-01
   1.0220000e+00   9.9763190e-01
   1.0230000e+00   9.9763800e-01
   1.0240000e+00   9.9765030e-01
   1.0250000e+00   9.9765640e-01
   1.0260000e+00   9.9766870e-01
   1.0270000e+00   9.9767440e-01
   1.0280000e+00   9.9768210e-01
   1.0290000e+00   9.9768980e-01
   1.0300000e+00   9.9769760e-01
   1.0310000e+00   9.9770530e-01
   1.0320000e+00   9.9771330e-01
   1.0330000e+00   9.9772120e-01
   1.0340000e+00   9.9772920e-01
   1.0350000e+00   9.9773720e-01
   1.0360000e+00   9.9774520e-01
   1.0370000e+00   9.9775100e-01
   1.0380000e+00   9.9775670e-01
   1.0390000e+00   9.9776250e-01
   1.0400000e+00   9.9776830e-01
   1.0410000e+00   9.9777400e-01
   4.5000000e+00   9.9777400e-01
   4.5010000e+00   9.9776830e-01
   4.5020000e+00   9.9776250e-01
   4.5030000e+00   9.9775670e-01
   4.5040000e+00   9.9775100e-01
   4.5050000e+00   9.9774520e-01
   4.5060000e+00   9.9773720e-01
   4.5070000e+00   9.9772920e-01
   4.5080000e+00   9.9772120e-01
   4.5090000e+00   9.9771330e-01
   4.5100000e+00   9.9770530e-01
   4.5110000e+00   9.9769760e-01
   4.5120000e+00   9.9768980e-01
   4.5130000e+00   9.9768210e-01
   4.5140000e+00   9.9767440e-01
   4.5150000e+00   9.9766870e-01
   4.5160000e+00   9.9765640e-01
   4.5170000e+00   9.9765030e-01
   4.5180000e+00   9.9763800e-01
   4.5190000e+00   9.9763190e-01
   4.5200000e+00   9.9761960e-01
   4.5210000e+00   9.9761350e-01
   4.5220000e+00   9.9760120e-01
   4.5230000e+00   9.9759510e-01
   4.5240000e+00   9.9758900e-01
   4.5250000e+00   9.9757670e-01
   4.5260000e+00   9.9757060e-01
   4.5270000e+00   9.9755830e-01
   4.5280000e+00   9.9755210e-01
   4.5290000e+00   9.9754600e-01
   4.5300000e+00   9.9753370e-01
   4.5310000e+00   9.9752760e-01
   4.5320000e+00   9.9752150e-01
   4.5330000e+00   9.9750920e-01
   4.5340000e+00   9.9750310e-01
   4.5350000e+00   9.9749080e-01
   4.5360000e+00   9.9748470e-01
   4.5370000e+00   9.9747240e-01
   4.5380000e+00   9.9746630e-01
   4.5390000e+00   9.9745400e-01
   4.5400000e+00   9.9744170e-01
   4.5410000e+00   9.9743560e-01
   4.5420000e+00   9.9742330e-01
   4.5430000e+00   9.9741720e-01
   4.5440000e+00   9.9740490e-01
   4.5450000e+00   9.9739880e-01
   4.5460000e+00   9.9738650e-01
   4.5470000e+00   9.9738040e-01
   4.5480000e+00   9.9736810e-01
   4.5490000e+00   9.9736200e-01
   4.5500000e+00   9.9734970e-01
   4.5510000e+00   9.9733740e-01
   4.5520000e+00   9.9732520e-01
   4.5530000e+00   9.9731900e-01
   4.5540000e+00   9.9730670e-01
   4.5550000e+00   9.9729450e-01
   4.5560000e+00   9.9728220e-01
   4.5570000e+00   9.9727610e-01
   4.5580000e+00   9.9726380e-01
   4.5590000e+00   9.9725150e-01
   4.5600000e+00   9.9724540e-01
   4.5610000e+00   9.9723310e-01
   4.5620000e+00   9.9722090e-01
   4.5630000e+00   9.9720860e-01
   4.5640000e+00   9.9720250e-01
   4.5650000e+00   9.9719020e-01
   4.5660000e+00   9.9717790e-01
   4.5670000e+00   9.9716560e-01
   4.5680000e+00   9.9715950e-01
   4.5690000e+00   9.9714720e-01
   4.5700000e+00   9.9713500e-01
   4.5710000e+00   9.9712270e-01
   4.5720000e+00   9.9711040e-01
   4.5730000e+00   9.9709820e-01
   4.5740000e+00   9.9708590e-01
   4.5750000e+00   9.9707360e-01
   4.5760000e+00   9.9706130e-01
   4.5770000e+00   9.9704910e-01
   4.5780000e+00   9.9703680e-01
   4.5790000e+00   9.9702450e-01
   4.5800000e+00   9.9701230e-01
   4.5810000e+00   9.9700000e-01
   4.5820000e+00   9.9698770e-01
   4.5830000e+00   9.9697550e-01
   4.5840000e+00   9.9696320e-01
   4.5850000e+00   9.9695710e-01
   4.5860000e+00   9.9693870e-01
   4.5870000e+00   9.9692640e-01
   4.5880000e+00   9.9691410e-01
   4.5890000e+00   9.9690180e-01
   4.5900000e+00   9.9688960e-01
   4.5910000e+00   9.9687730e-01
   4.5920000e+00   9.9686500e-01
   4.5930000e+00   9.9684660e-01
   4.5940000e+00   9.9683440e-01
   4.5950000e+00   9.9682210e-01
   4.5960000e+00   9.9680980e-01
   4.5970000e+00   9.9679140e-01
   4.5980000e+00   9.9677910e-01
   4.5990000e+00   9.9676690e-01
   4.6000000e+00   9.9675460e-01
   4.6010000e+00   9.9673620e-01
   4.6020000e+00   9.9672390e-01
   4.6030000e+00   9.9671170e-01
   4.6040000e+00   9.9669330e-01
   4.6050000e+00   9.9668100e-01
   4.6060000e+00   9.9666870e-01
   4.6070000e+00   9.9665030e-01
   4.6080000e+00   9.9663800e-01
   4.6090000e+00   9.9662580e-01
   4.6100000e+00   9.9660740e-01
   4.6110000e+00   9.9659510e-01
   4.6120000e+00   9.9657670e-01
   4.6130000e+00   9.9655830e-01
   4.6140000e+00   9.9654600e-01
   4.6150000e+00   9.9652760e-01
   4.6160000e+00   9.9650920e-01
   4.6170000e+00   9.9649690e-01
   4.6180000e+00   9.9647850e-01
   4.6190000e+00   9.9646010e-01
   4.6200000e+00   9.9644790e-01
   4.6210000e+00   9.9642940e-01
   4.6220000e+00   9.9641100e-01
   4.6230000e+00   9.9639880e-01
   4.6240000e+00   9.9638040e-01
   4.6250000e+00   9.9636810e-01
   4.6260000e+00   9.9634970e-01
   4.6270000e+00   9.9633130e-01
   4.6280000e+00   9.9631290e-01
   4.6290000e+00   9.9629450e-01
   4.6300000e+00   9.9628220e-01
   4.6310000e+00   9.9626380e-01
   4.6320000e+00   9.9624540e-01
   4.6330000e+00   9.9622700e-01
   4.6340000e+00   9.9620860e-01
   4.6350000e+00   9.9619020e-01
   4.6360000e+00   9.9617180e-01
   4.6370000e+00   9.9614720e-01
   4.6380000e+00   9.9612880e-01
   4.6390000e+00   9.9611040e-01
   4.6400000e+00   9.9608590e-01
   4.6410000e+00   9.9606750e-01
   4.6420000e+00   9.9605520e-01
   4.6430000e+00   9.9603680e-01
   4.6440000e+00   9.9601840e-01
   4.6450000e+00   9.9600000e-01
   4.6460000e+00   9.9597550e-01
   4.6470000e+00   9.9595710e-01
   4.6480000e+00   9.9593250e-01
   4.6490000e+00   9.9591410e-01
   4.6500000e+00   9.9588960e-01
   4.6510000e+00   9.9587120e-01
   4.6520000e+00   9.9584660e-01
   4.6530000e+00   9.9582820e-01
   4.6540000e+00   9.9580370e-01
   4.6550000e+00   9.9578530e-01
   4.6560000e+00   9.9576070e-01
   4.6570000e+00   9.9574230e-01
   4.6580000e+00   9.9571780e-01
   4.6590000e+00   9.9569330e-01
   4.6600000e+00   9.9566870e-01
   4.6610000e+00   9.9565030e-01
   4.6620000e+00   9.9562580e-01
   4.6630000e+00   9.9560120e-01
   4.6640000e+00   9.9557670e-01
   4.6650000e+00   9.9555210e-01
   4.6660000e+00   9.9552760e-01
   4.6670000e+00   9.9550920e-01
   4.6680000e+00   9.9548470e-01
   4.6690000e+00   9.9546630e-01
   4.6700000e+00   9.9544790e-01
   4.6710000e+00   9.9541720e-01
   4.6720000e+00   9.9538650e-01
   4.6730000e+00   9.9535580e-01
   4.6740000e+00   9.9532520e-01
   4.6750000e+00   9.9529450e-01
   4.6760000e+00   9.9527610e-01
   4.6770000e+00   9.9525150e-01
   4.6780000e+00   9.9522700e-01
   4.6790000e+00   9.9520250e-01
   4.6800000e+00   9.9517790e-01
   4.6810000e+00   9.9514720e-01
   4.6820000e+00   9.9511660e-01
   4.6830000e+00   9.9508590e-01
   4.6840000e+00   9.9505520e-01
   4.6850000e+00   9.9502450e-01
   4.6860000e+00   9.9499390e-01
   4.6870000e+00   9.9496320e-01
   4.6880000e+00   9.9493870e-01
   4.6890000e+00   9.9490800e-01
   4.6900000e+00   9.9487730e-01
   4.6910000e+00   9.9484660e-01
   4.6920000e+00   9.9481600e-01
   4.6930000e+00   9.9478530e-01
   4.6940000e+00   9.9475460e-01
   4.6950000e+00   9.9472390e-01
   4.6960000e+00   9.9469330e-01
   4.6970000e+00   9.9465640e-01
   4.6980000e+00   9.9462580e-01
   4.6990000e+00   9.9459510e-01
   4.7000000e+00   9.9455830e-01
   4.7010000e+00   9.9452760e-01
   4.7020000e+00   9.9449690e-01
   4.7030000e+00   9.9446010e-01
   4.7040000e+00   9.9442940e-01
   4.7050000e+00   9.9439260e-01
   4.7060000e+00   9.9435580e-01
   4.7070000e+00   9.9431900e-01
   4.7080000e+00   9.9428220e-01
   4.7090000e+00   9.9424540e-01
   4.7100000e+00   9.9420860e-01
   4.7110000e+00   9.9417180e-01
   4.7120000e+00   9.9412880e-01
   4.7130000e+00   9.9409200e-01
   4.7140000e+00   9.9405520e-01
   4.7150000e+00   9.9401840e-01
   4.7160000e+00   9.9397550e-01
   4.7170000e+00   9.9393250e-01
   4.7180000e+00   9.9388340e-01
   4.7190000e+00   9.9386500e-01
   4.7200000e+00   9.9380370e-01
   4.7210000e+00   9.9374230e-01
   4.7220000e+00   9.9374230e-01
   4.7230000e+00   9.9368100e-01
   4.7240000e+00   9.9361960e-01
   4.7250000e+00   9.9361960e-01
   4.7260000e+00   9.9355830e-01
   4.7270000e+00   9.9349690e-01
   4.7280000e+00   9.9343560e-01
   4.7290000e+00   9.9343560e-01
   4.7300000e+00   9.9337420e-01
   4.7310000e+00   9.9331290e-01
   4.7320000e+00   9.9325150e-01
   4.7330000e+00   9.9319020e-01
   4.7340000e+00   9.9319020e-01
   4.7350000e+00   9.9312880e-01
   4.7360000e+00   9.9306750e-01
   4.7370000e+00   9.9300610e-01
   4.7380000e+00   9.9294480e-01
   4.7390000e+00   9.9294480e-01
   4.7400000e+00   9.9288340e-01
   4.7410000e+00   9.9282210e-01
   4.7420000e+00   9.9276070e-01
   4.7430000e+00   9.9269940e-01
   4.7440000e+00   9.9263800e-01
   4.7450000e+00   9.9257670e-01
   4.7460000e+00   9.9251530e-01
   4.7470000e+00   9.9245400e-01
   4.7480000e+00   9.9245400e-01
   4.7490000e+00   9.9239260e-01
   4.7500000e+00   9.9233130e-01
   4.7510000e+00   9.9226990e-01
   4.7520000e+00   9.9220860e-01
   4.7530000e+00   9.9214720e-01
   4.7540000e+00   9.9208590e-01
   4.7550000e+00   9.9202450e-01
   4.7560000e+00   9.9196320e-01
   4.7570000e+00   9.9184050e-01
   4.7580000e+00   9.9177910e-01
   4.7590000e+00   9.9171780e-01
   4.7600000e+00   9.9165640e-01
   4.7610000e+00   9.9159510e-01
   4.7620000e+00   9.9153370e-01
   4.7630000e+00   9.9147240e-01
   4.7640000e+00   9.9141100e-01
   4.7650000e+00   9.9134970e-01
   4.7660000e+00   9.9128830e-01
   4.7670000e+00   9.9116560e-01
   4.7680000e+00   9.9110430e-01
   4.7690000e+00   9.9104290e-01
   4.7700000e+00   9.9098160e-01
   4.7710000e+00   9.9085890e-01
   4.7720000e+00   9.9079750e-01
   4.7730000e+00   9.9073620e-01
   4.7740000e+00   9.9061350e-01
   4.7750000e+00   9.9055210e-01
   4.7760000e+00   9.9049080e-01
   4.7770000e+00   9.9036810e-01
   4.7780000e+00   9.9030670e-01
   4.7790000e+00   9.9024540e-01
   4.7800000e+00   9.9012270e-01
   4.7810000e+00   9.9006130e-01
   4.7820000e+00   9.8993900e-01
   4.7830000e+00   9.8987700e-01
   4.7840000e+00   9.8975500e-01
   4.7850000e+00   9.8969300e-01
   4.7860000e+00   9.8957100e-01
   4.7870000e+00   9.8950900e-01
   4.7880000e+00   9.8938700e-01
   4.7890000e+00   9.8932500e-01
   4.7900000e+00   9.8920200e-01
   4.7910000e+00   9.8908000e-01
   4.7920000e+00   9.8901800e-01
   4.7930000e+00   9.8889600e-01
   4.7940000e+00   9.8877300e-01
   4.7950000e+00   9.8871200e-01
   4.7960000e+00   9.8858900e-01
   4.7970000e+00   9.8846600e-01
   4.7980000e+00   9.8834400e-01
   4.7990000e+00   9.8822100e-01
   4.8000000e+00   9.8816000e-01
   4.8010000e+00   9.8803700e-01
   4.8020000e+00   9.8791400e-01
   4.8030000e+00   9.8779100e-01
   4.8040000e+00   9.8766900e-01
   4.8050000e+00   9.8754600e-01
   4.8060000e+00   9.8742300e-01
   4.8070000e+00   9.8723900e-01
   4.8080000e+00   9.8711700e-01
   4.8090000e+00   9.8699400e-01
   4.8100000e+00   9.8687100e-01
   4.8110000e+00   9.8674800e-01
   4.8120000e+00   9.8662600e-01
   4.8130000e+00   9.8644200e-01
   4.8140000e+00   9.8631900e-01
   4.8150000e+00   9.8619600e-01
   4.8160000e+00   9.8601200e-01
   4.8170000e+00   9.8589000e-01
   4.8180000e+00   9.8570600e-01
   4.8190000e+00   9.8558300e-01
   4.8200000e+00   9.8539900e-01
   4.8210000e+00   9.8527600e-01
   4.8220000e+00   9.8509200e-01
   4.8230000e+00   9.8490800e-01
   4.8240000e+00   9.8478500e-01
   4.8250000e+00   9.8460100e-01
   4.8260000e+00   9.8441700e-01
   4.8270000e+00   9.8423300e-01
   4.8280000e+00   9.8411000e-01
   4.8290000e+00   9.8392600e-01
   4.8300000e+00   9.8374200e-01
   4.8310000e+00   9.8355800e-01
   4.8320000e+00   9.8337400e-01
   4.8330000e+00   9.8319000e-01
   4.8340000e+00   9.8300600e-01
   4.8350000e+00   9.8282200e-01
   4.8360000e+00   9.8257700e-01
   4.8370000e+00   9.8239300e-01
   4.8380000e+00   9.8214700e-01
   4.8390000e+00   9.8196300e-01
   4.8400000e+00   9.8171800e-01
   4.8410000e+00   9.8153400e-01
   4.8420000e+00   9.8128800e-01
   4.8430000e+00   9.8110400e-01
   4.8440000e+00   9.8085900e-01
   4.8450000e+00   9.8061300e-01
   4.8460000e+00   9.8036800e-01
   4.8470000e+00   9.8012300e-01
   4.8480000e+00   9.7987700e-01
   4.8490000e+00   9.7963200e-01
   4.8500000e+00   9.7938700e-01
   4.8510000e+00   9.7908000e-01
   4.8520000e+00   9.7883400e-01
   4.8530000e+00   9.7858900e-01
   4.8540000e+00   9.7828200e-01
   4.8550000e+00   9.7803700e-01
   4.8560000e+00   9.7773000e-01
   4.8570000e+00   9.7742300e-01
   4.8580000e+00   9.7717800e-01
   4.8590000e+00   9.7687100e-01
   4.8600000e+00   9.7656400e-01
   4.8610000e+00   9.7625800e-01
   4.8620000e+00   9.7595100e-01
   4.8630000e+00   9.7558300e-01
   4.8640000e+00   9.7527600e-01
   4.8650000e+00   9.7496900e-01
   4.8660000e+00   9.7460100e-01
   4.8670000e+00   9.7423300e-01
   4.8680000e+00   9.7392600e-01
   4.8690000e+00   9.7355800e-01
   4.8700000e+00   9.7319000e-01
   4.8710000e+00   9.7282200e-01
   4.8720000e+00   9.7245400e-01
   4.8730000e+00   9.7208600e-01
   4.8740000e+00   9.7165600e-01
   4.8750000e+00   9.7128800e-01
   4.8760000e+00   9.7085900e-01
   4.8770000e+00   9.7042900e-01
   4.8780000e+00   9.7000000e-01
   4.8790000e+00   9.6957100e-01
   4.8800000e+00   9.6914100e-01
   4.8810000e+00   9.6871200e-01
   4.8820000e+00   9.6822100e-01
   4.8830000e+00   9.6773000e-01
   4.8840000e+00   9.6730100e-01
   4.8850000e+00   9.6681000e-01
   4.8860000e+00   9.6631900e-01
   4.8870000e+00   9.6576700e-01
   4.8880000e+00   9.6527600e-01
   4.8890000e+00   9.6472400e-01
   4.8900000e+00   9.6423300e-01
   4.8910000e+00   9.6368100e-01
   4.8920000e+00   9.6306700e-01
   4.8930000e+00   9.6251500e-01
   4.8940000e+00   9.6196300e-01
   4.8950000e+00   9.6135000e-01
   4.8960000e+00   9.6073600e-01
   4.8970000e+00   9.6012300e-01
   4.8980000e+00   9.5944800e-01
   4.8990000e+00   9.5883400e-01
   4.9000000e+00   9.5816000e-01
   4.9010000e+00   9.5748500e-01
   4.9020000e+00   9.5674800e-01
   4.9030000e+00   9.5607400e-01
   4.9040000e+00   9.5539900e-01
   4.9050000e+00   9.5466300e-01
   4.9060000e+00   9.5386500e-01
   4.9070000e+00   9.5306700e-01
   4.9080000e+00   9.5233100e-01
   4.9090000e+00   9.5153400e-01
   4.9100000e+00   9.5073600e-01
   4.9110000e+00   9.4987700e-01
   4.9120000e+00   9.4895700e-01
   4.9130000e+00   9.4809800e-01
   4.9140000e+00   9.4723900e-01
   4.9150000e+00   9.4638000e-01
   4.9160000e+00   9.4539900e-01
   4.9170000e+00   9.4441700e-01
   4.9180000e+00   9.4343600e-01
   4.9190000e+00   9.4245400e-01
   4.9200000e+00   9.4147200e-01
   4.9210000e+00   9.4036800e-01
   4.9220000e+00   9.3926400e-01
   4.9230000e+00   9.3803700e-01
   4.9240000e+00   9.3681000e-01
   4.9250000e+00   9.3619600e-01
   4.9260000e+00   9.3496900e-01
   4.9270000e+00   9.3374200e-01
   4.9280000e+00   9.3251500e-01
   4.9290000e+00   9.3128800e-01
   4.9300000e+00   9.3006100e-01
   4.9310000e+00   9.2822100e-01
   4.9320000e+00   9.2699400e-01
   4.9330000e+00   9.2576700e-01
   4.9340000e+00   9.2454000e-01
   4.9350000e+00   9.2269900e-01
   4.9360000e+00   9.2147200e-01
   4.9370000e+00   9.1963200e-01
   4.9380000e+00   9.1840500e-01
   4.9390000e+00   9.1656400e-01
   4.9400000e+00   9.1533700e-01
   4.9410000e+00   9.1349700e-01
   4.9420000e+00   9.1165600e-01
   4.9430000e+00   9.0981600e-01
   4.9440000e+00   9.0797500e-01
   4.9450000e+00   9.0613500e-01
   4.9460000e+00   9.0429400e-01
   4.9470000e+00   9.0245400e-01
   4.9480000e+00   9.0061300e-01
   4.9490000e+00   8.9816000e-01
   4.9500000e+00   8.9632000e-01
   4.9510000e+00   8.9387000e-01
   4.9520000e+00   8.9202000e-01
   4.9530000e+00   8.8957000e-01
   4.9540000e+00   8.8712000e-01
   4.9550000e+00   8.8528000e-01
   4.9560000e+00   8.8282000e-01
   4.9570000e+00   8.7975000e-01
   4.9580000e+00   8.7730000e-01
   4.9590000e+00   8.7485000e-01
   4.9600000e+00   8.7239000e-01
   4.9610000e+00   8.6933000e-01
   4.9620000e+00   8.6626000e-01
   4.9630000e+00   8.6319000e-01
   4.9640000e+00   8.6074000e-01
   4.9650000e+00   8.5767000e-01
   4.9660000e+00   8.5460000e-01
   4.9670000e+00   8.5092000e-01
   4.9680000e+00   8.4785000e-01
   4.9690000e+00   8.4479000e-01
   4.9700000e+00   8.4172000e-01
   4.9710000e+00   8.3804000e-01
   4.9720000e+00   8.3374000e-01
   4.9730000e+00   8.3006000e-01
   4.9740000e+00   8.2638000e-01
   4.9750000e+00   8.2270000e-01
   4.9760000e+00   8.1840000e-01
   4.9770000e+00   8.1411000e-01
   4.9780000e+00   8.1043000e-01
   4.9790000e+00   8.0613000e-01
   4.9800000e+00   8.0184000e-01
   4.9810000e+00   7.9693000e-01
   4.9820000e+00   7.9202000e-01
   4.9830000e+00   7.8712000e-01
   4.9840000e+00   7.8221000e-01
   4.9850000e+00   7.7730000e-01
   4.9860000e+00   7.7178000e-01
   4.9870000e+00   7.6626000e-01
   4.9880000e+00   7.6074000e-01
   4.9890000e+00   7.5521000e-01
   4.9900000e+00   7.4969000e-01
   4.9910000e+00   7.4356000e-01
   4.9920000e+00   7.3742000e-01
   4.9930000e+00   7.3129000e-01
   4.9940000e+00   7.2577000e-01
   4.9950000e+00   7.1963000e-01
   4.9960000e+00   7.1227000e-01
   4.9970000e+00   7.0552000e-01
   4.9980000e+00   6.9877000e-01
   4.9990000e+00   6.9202000e-01
   5.0000000e+00   6.8466000e-01
   5.0010000e+00   6.7730000e-01
   5.0020000e+00   6.6933000e-01
   5.0030000e+00   6.6196000e-01
   5.0040000e+00   6.5399000e-01
   5.0050000e+00   6.4663000e-01
   5.0060000e+00   6.3804000e-01
   5.0070000e+00   6.2883000e-01
   5.0080000e+00   6.2025000e-01
   5.0090000e+00   6.1166000e-01
   5.0100000e+00   6.0307000e-01
   5.0110000e+00   5.9325000e-01
   5.0120000e+00   5.8405000e-01
   5.0130000e+00   5.7423000e-01
   5.0140000e+00   5.6503000e-01
   5.0150000e+00   5.5521000e-01
   5.0160000e+00   5.4540000e-01
   5.0170000e+00   5.3497000e-01
   5.0180000e+00   5.2454000e-01
   5.0190000e+00   5.1472000e-01
   5.0200000e+00   5.0429000e-01
   5.0210000e+00   4.9571000e-01
   5.0220000e+00   4.8528000e-01
   5.0230000e+00   4.7546000e-01
   5.0240000e+00   4.6503000e-01
   5.0250000e+00   4.5460000e-01
   5.0260000e+00   4.4479000e-01
   5.0270000e+00   4.3497000e-01
   5.0280000e+00   4.2577000e-01
   5.0290000e+00   4.1595000e-01
   5.0300000e+00   4.0675000e-01
   5.0310000e+00   3.9693000e-01
   5.0320000e+00   3.8834000e-01
   5.0330000e+00   3.7975000e-01
   5.0340000e+00   3.7117000e-01
   5.0350000e+00   3.6196000e-01
   5.0360000e+00   3.5337000e-01
   5.0370000e+00   3.4601000e-01
   5.0380000e+00   3.3804000e-01
   5.0390000e+00   3.3067000e-01
   5.0400000e+00   3.2270000e-01
   5.0410000e+00   3.1534000e-01
   5.0420000e+00   3.0798000e-01
   5.0430000e+00   3.0123000e-01
   5.0440000e+00   2.9448000e-01
   5.0450000e+00   2.8773000e-01
   5.0460000e+00   2.8037000e-01
   5.0470000e+00   2.7423000e-01
   5.0480000e+00   2.6871000e-01
   5.0490000e+00   2.6258000e-01
   5.0500000e+00   2.5644000e-01
   5.0510000e+00   2.5031000e-01
   5.0520000e+00   2.4479000e-01
   5.0530000e+00   2.3926000e-01
   5.0540000e+00   2.3374000e-01
   5.0550000e+00   2.2822000e-01
   5.0560000e+00   2.2270000e-01
   5.0570000e+00   2.1779000e-01
   5.0580000e+00   2.1288000e-01
   5.0590000e+00   2.0798000e-01
   5.0600000e+00   2.0307000e-01
   5.0610000e+00   1.9816000e-01
   5.0620000e+00   1.9387000e-01
   5.0630000e+00   1.8957000e-01
   5.0640000e+00   1.8589000e-01
   5.0650000e+00   1.8160000e-01
   5.0660000e+00   1.7730000e-01
   5.0670000e+00   1.7362000e-01
   5.0680000e+00   1.6994000e-01
   5.0690000e+00   1.6626000e-01
   5.0700000e+00   1.6196000e-01
   5.0710000e+00   1.5828000e-01
   5.0720000e+00   1.5521000e-01
   5.0730000e+00   1.5215000e-01
   5.0740000e+00   1.4908000e-01
   5.0750000e+00   1.4540000e-01
   5.0760000e+00   1.4233000e-01
   5.0770000e+00   1.3926000e-01
   5.0780000e+00   1.3681000e-01
   5.0790000e+00   1.3374000e-01
   5.0800000e+00   1.3067000e-01
   5.0810000e+00   1.2761000e-01
   5.0820000e+00   1.2515000e-01
   5.0830000e+00   1.2270000e-01
   5.0840000e+00   1.2025000e-01
   5.0850000e+00   1.1718000e-01
   5.0860000e+00   1.1472000e-01
   5.0870000e+00   1.1288000e-01
   5.0880000e+00   1.1043000e-01
   5.0890000e+00   1.0798000e-01
   5.0900000e+00   1.0613000e-01
   5.0910000e+00   1.0368000e-01
   5.0920000e+00   1.0184000e-01
   5.0930000e+00   9.9387000e-02
   5.0940000e+00   9.7546000e-02
   5.0950000e+00   9.5706000e-02
   5.0960000e+00   9.3865000e-02
   5.0970000e+00   9.2025000e-02
   5.0980000e+00   9.0184000e-02
   5.0990000e+00   8.8344000e-02
   5.1000000e+00   8.6503000e-02
   5.1010000e+00   8.4663000e-02
   5.1020000e+00   8.3436000e-02
   5.1030000e+00   8.1595000e-02
   5.1040000e+00   8.0368000e-02
   5.1050000e+00   7.8528000e-02
   5.1060000e+00   7.7301000e-02
   5.1070000e+00   7.5460000e-02
   5.1080000e+00   7.4233000e-02
   5.1090000e+00   7.3006000e-02
   5.1100000e+00   7.1779000e-02
   5.1110000e+00   6.9939000e-02
   5.1120000e+00   6.8712000e-02
   5.1130000e+00   6.7485000e-02
   5.1140000e+00   6.6258000e-02
   5.1150000e+00   6.5031000e-02
   5.1160000e+00   6.3804000e-02
   5.1170000e+00   6.3190000e-02
   5.1180000e+00   6.1963000e-02
   5.1190000e+00   6.0736000e-02
   5.1200000e+00   5.9632000e-02
   5.1210000e+00   5.8528000e-02
   5.1220000e+00   5.7546000e-02
   5.1230000e+00   5.6564000e-02
   5.1240000e+00   5.5583000e-02
   5.1250000e+00   5.4601000e-02
   5.1260000e+00   5.3620000e-02
   5.1270000e+00   5.2761000e-02
   5.1280000e+00   5.1902000e-02
   5.1290000e+00   5.1043000e-02
   5.1300000e+00   5.0123000e-02
   5.1310000e+00   4.9264000e-02
   5.1320000e+00   4.8466000e-02
   5.1330000e+00   4.7669000e-02
   5.1340000e+00   4.6933000e-02
   5.1350000e+00   4.6135000e-02
   5.1360000e+00   4.5337000e-02
   5.1370000e+00   4.4601000e-02
   5.1380000e+00   4.3926000e-02
   5.1390000e+00   4.3252000e-02
   5.1400000e+00   4.2515000e-02
   5.1410000e+00   4.1840000e-02
   5.1420000e+00   4.1166000e-02
   5.1430000e+00   4.0552000e-02
   5.1440000e+00   3.9877000e-02
   5.1450000e+00   3.9264000e-02
   5.1460000e+00   3.8650000e-02
   5.1470000e+00   3.8037000e-02
   5.1480000e+00   3.7485000e-02
   5.1490000e+00   3.6933000e-02
   5.1500000e+00   3.6319000e-02
   5.1510000e+00   3.5767000e-02
   5.1520000e+00   3.5276000e-02
   5.1530000e+00   3.4724000e-02
   5.1540000e+00   3.4233000e-02
   5.1550000e+00   3.3681000e-02
   5.1560000e+00   3.3190000e-02
   5.1570000e+00   3.2699000e-02
   5.1580000e+00   3.2270000e-02
   5.1590000e+00   3.1779000e-02
   5.1600000e+00   3.1288000e-02
   5.1610000e+00   3.0859000e-02
   5.1620000e+00   3.0429000e-02
   5.1630000e+00   3.0000000e-02
   5.1640000e+00   2.9571000e-02
   5.1650000e+00   2.9141000e-02
   5.1660000e+00   2.8712000e-02
   5.1670000e+00   2.8344000e-02
   5.1680000e+00   2.7914000e-02
   5.1690000e+00   2.7546000e-02
   5.1700000e+00   2.7178000e-02
   5.1710000e+00   2.6810000e-02
   5.1720000e+00   2.6442000e-02
   5.1730000e+00   2.6074000e-02
   5.1740000e+00   2.5767000e-02
   5.1750000e+00   2.5399000e-02
   5.1760000e+00   2.5031000e-02
   5.1770000e+00   2.4724000e-02
   5.1780000e+00   2.4417000e-02
   5.1790000e+00   2.4049000e-02
   5.1800000e+00   2.3742000e-02
   5.1810000e+00   2.3436000e-02
   5.1820000e+00   2.3129000e-02
   5.1830000e+00   2.2822000e-02
   5.1840000e+00   2.2577000e-02
   5.1850000e+00   2.2270000e-02
   5.1860000e+00   2.1963000e-02
   5.1870000e+00   2.1718000e-02
   5.1880000e+00   2.1411000e-02
   5.1890000e+00   2.1166000e-02
   5.1900000e+00   2.0920000e-02
   5.1910000e+00   2.0613000e-02
   5.1920000e+00   2.0368000e-02
   5.1930000e+00   2.0123000e-02
   5.1940000e+00   1.9877000e-02
   5.1950000e+00   1.9632000e-02
   5.1960000e+00   1.9387000e-02
   5.1970000e+00   1.9141000e-02
   5.1980000e+00   1.8896000e-02
   5.1990000e+00   1.8712000e-02
   5.2000000e+00   1.8466000e-02
   5.2010000e+00   1.8282000e-02
   5.2020000e+00   1.8037000e-02
   5.2030000e+00   1.7853000e-02
   5.2040000e+00   1.7607000e-02
   5.2050000e+00   1.7423000e-02
   5.2060000e+00   1.7178000e-02
   5.2070000e+00   1.6994000e-02
   5.2080000e+00   1.6810000e-02
   5.2090000e+00   1.6626000e-02
   5.2100000e+00   1.6442000e-02
   5.2110000e+00   1.6258000e-02
   5.2120000e+00   1.6074000e-02
   5.2130000e+00   1.5890000e-02
   5.2140000e+00   1.5767000e-02
   5.2150000e+00   1.5583000e-02
   5.2160000e+00   1.5399000e-02
   5.2170000e+00   1.5215000e-02
   5.2180000e+00   1.5092000e-02
   5.2190000e+00   1.4908000e-02
   5.2200000e+00   1.4724000e-02
   5.2210000e+00   1.4601000e-02
   5.2220000e+00   1.4417000e-02
   5.2230000e+00   1.4294000e-02
   5.2240000e+00   1.4110000e-02
   5.2250000e+00   1.3988000e-02
   5.2260000e+00   1.3804000e-02
   5.2270000e+00   1.3681000e-02
   5.2280000e+00   1.3558000e-02
   5.2290000e+00   1.3374000e-02
   5.2300000e+00   1.3252000e-02
   5.2310000e+00   1.3129000e-02
   5.2320000e+00   1.3006000e-02
   5.2330000e+00   1.2883000e-02
   5.2340000e+00   1.2761000e-02
   5.2350000e+00   1.2577000e-02
   5.2360000e+00   1.2454000e-02
   5.2370000e+00   1.2331000e-02
   5.2380000e+00   1.2209000e-02
   5.2390000e+00   1.2086000e-02
   5.2400000e+00   1.1963000e-02
   5.2410000e+00   1.1840000e-02
   5.2420000e+00   1.1779000e-02
   5.2430000e+00   1.1656000e-02
   5.2440000e+00   1.1534000e-02
   5.2450000e+00   1.1411000e-02
   5.2460000e+00   1.1288000e-02
   5.2470000e+00   1.1227000e-02
   5.2480000e+00   1.1104000e-02
   5.2490000e+00   1.0982000e-02
   5.2500000e+00   1.0920000e-02
   5.2510000e+00   1.0798000e-02
   5.2520000e+00   1.0675000e-02
   5.2530000e+00   1.0613000e-02
   5.2540000e+00   1.0491000e-02
   5.2550000e+00   1.0429000e-02
   5.2560000e+00   1.0307000e-02
   5.2570000e+00   1.0245000e-02
   5.2580000e+00   1.0123000e-02
   5.2590000e+00   1.0061000e-02
   5.2600000e+00   9.9387000e-03
   5.2610000e+00   9.8773000e-03
   5.2620000e+00   9.7546000e-03
   5.2630000e+00   9.6933000e-03
   5.2640000e+00   9.6319000e-03
   5.2650000e+00   9.5092000e-03
   5.2660000e+00   9.4479000e-03
   5.2670000e+00   9.3865000e-03
   5.2680000e+00   9.2638000e-03
   5.2690000e+00   9.2025000e-03
   5.2700000e+00   9.1411000e-03
   5.2710000e+00   9.0184000e-03
   5.2720000e+00   8.9571000e-03
   5.2730000e+00   8.8957000e-03
   5.2740000e+00   8.8344000e-03
   5.2750000e+00   8.7117000e-03
   5.2760000e+00   8.6503000e-03
   5.2770000e+00   8.5890000e-03
   5.2780000e+00   8.5276000e-03
   5.2790000e+00   8.4663000e-03
   5.2800000e+00   8.4049000e-03
   5.2810000e+00   8.3436000e-03
   5.2820000e+00   8.2822000e-03
   5.2830000e+00   8.2209000e-03
   5.2840000e+00   8.1595000e-03
   5.2850000e+00   8.0368000e-03
   5.2860000e+00   7.9755000e-03
   5.2870000e+00   7.9141000e-03
   5.2880000e+00   7.8528000e-03
   5.2890000e+00   7.7914000e-03
   5.2900000e+00   7.7301000e-03
   5.2910000e+00   7.6687000e-03
   5.2920000e+00   7.6074000e-03
   5.2930000e+00   7.5460000e-03
   5.2940000e+00   7.5460000e-03
   5.2950000e+00   7.4847000e-03
   5.2960000e+00   7.4233000e-03
   5.2970000e+00   7.3620000e-03
   5.2980000e+00   7.3006000e-03
   5.2990000e+00   7.2393000e-03
   5.3000000e+00   7.1779000e-03
   5.3010000e+00   7.1166000e-03
   5.3020000e+00   7.0552000e-03
   5.3030000e+00   7.0552000e-03
   5.3040000e+00   6.9939000e-03
   5.3050000e+00   6.9325000e-03
   5.3060000e+00   6.8712000e-03
   5.3070000e+00   6.8098000e-03
   5.3080000e+00   6.8098000e-03
   5.3090000e+00   6.7485000e-03
   5.3100000e+00   6.6871000e-03
   5.3110000e+00   6.6258000e-03
   5.3120000e+00   6.5644000e-03
   5.3130000e+00   6.5644000e-03
   5.3140000e+00   6.5031000e-03
   5.3150000e+00   6.4417000e-03
   5.3160000e+00   6.3804000e-03
   5.3170000e+00   6.3804000e-03
   5.3180000e+00   6.3190000e-03
   5.3190000e+00   6.2577000e-03
   5.3200000e+00   6.2577000e-03
   5.3210000e+00   6.1963000e-03
   5.3220000e+00   6.1350000e-03
   5.3230000e+00   6.1166000e-03
   5.3240000e+00   6.0675000e-03
   5.3250000e+00   6.0245000e-03
   5.3260000e+00   5.9816000e-03
   5.3270000e+00   5.9448000e-03
   5.3280000e+00   5.9080000e-03
   5.3290000e+00   5.8712000e-03
   5.3300000e+00   5.8282000e-03
   5.3310000e+00   5.7914000e-03
   5.3320000e+00   5.7546000e-03
   5.3330000e+00   5.7178000e-03
   5.3340000e+00   5.6810000e-03
   5.3350000e+00   5.6442000e-03
   5.3360000e+00   5.6074000e-03
   5.3370000e+00   5.5706000e-03
   5.3380000e+00   5.5399000e-03
   5.3390000e+00   5.5031000e-03
   5.3400000e+00   5.4724000e-03
   5.3410000e+00   5.4417000e-03
   5.3420000e+00   5.4049000e-03
   5.3430000e+00   5.3742000e-03
   5.3440000e+00   5.3436000e-03
   5.3450000e+00   5.3067000e-03
   5.3460000e+00   5.2761000e-03
   5.3470000e+00   5.2454000e-03
   5.3480000e+00   5.2147000e-03
   5.3490000e+00   5.1840000e-03
   5.3500000e+00   5.1534000e-03
   5.3510000e+00   5.1227000e-03
   5.3520000e+00   5.0920000e-03
   5.3530000e+00   5.0613000e-03
   5.3540000e+00   5.0368000e-03
   5.3550000e+00   5.0061000e-03
   5.3560000e+00   4.9755000e-03
   5.3570000e+00   4.9448000e-03
   5.3580000e+00   4.9141000e-03
   5.3590000e+00   4.8834000e-03
   5.3600000e+00   4.8528000e-03
   5.3610000e+00   4.8221000e-03
   5.3620000e+00   4.7975000e-03
   5.3630000e+00   4.7730000e-03
   5.3640000e+00   4.7485000e-03
   5.3650000e+00   4.7239000e-03
   5.3660000e+00   4.7055000e-03
   5.3670000e+00   4.6748000e-03
   5.3680000e+00   4.6442000e-03
   5.3690000e+00   4.6135000e-03
   5.3700000e+00   4.5828000e-03
   5.3710000e+00   4.5521000e-03
   5.3720000e+00   4.5337000e-03
   5.3730000e+00   4.5153000e-03
   5.3740000e+00   4.4908000e-03
   5.3750000e+00   4.4724000e-03
   5.3760000e+00   4.4479000e-03
   5.3770000e+00   4.4233000e-03
   5.3780000e+00   4.3988000e-03
   5.3790000e+00   4.3742000e-03
   5.3800000e+00   4.3497000e-03
   5.3810000e+00   4.3313000e-03
   5.3820000e+00   4.3067000e-03
   5.3830000e+00   4.2822000e-03
   5.3840000e+00   4.2577000e-03
   5.3850000e+00   4.2393000e-03
   5.3860000e+00   4.2147000e-03
   5.3870000e+00   4.1963000e-03
   5.3880000e+00   4.1718000e-03
   5.3890000e+00   4.1534000e-03
   5.3900000e+00   4.1288000e-03
   5.3910000e+00   4.1104000e-03
   5.3920000e+00   4.0859000e-03
   5.3930000e+00   4.0675000e-03
   5.3940000e+00   4.0429000e-03
   5.3950000e+00   4.0245000e-03
   5.3960000e+00   4.0000000e-03
   5.3970000e+00   3.9816000e-03
   5.3980000e+00   3.9632000e-03
   5.3990000e+00   3.9448000e-03
   5.4000000e+00   3.9325000e-03
   5.4010000e+00   3.9141000e-03
   5.4020000e+00   3.8896000e-03
   5.4030000e+00   3.8712000e-03
   5.4040000e+00   3.8528000e-03
   5.4050000e+00   3.8282000e-03
   5.4060000e+00   3.8098000e-03
   5.4070000e+00   3.7914000e-03
   5.4080000e+00   3.7730000e-03
   5.4090000e+00   3.7546000e-03
   5.4100000e+00   3.7362000e-03
   5.4110000e+00   3.7178000e-03
   5.4120000e+00   3.7055000e-03
   5.4130000e+00   3.6871000e-03
   5.4140000e+00   3.6687000e-03
   5.4150000e+00   3.6503000e-03
   5.4160000e+00   3.6319000e-03
   5.4170000e+00   3.6196000e-03
   5.4180000e+00   3.6012000e-03
   5.4190000e+00   3.5890000e-03
   5.4200000e+00   3.5706000e-03
   5.4210000e+00   3.5521000e-03
   5.4220000e+00   3.5399000e-03
   5.4230000e+00   3.5215000e-03
   5.4240000e+00   3.5031000e-03
   5.4250000e+00   3.4908000e-03
   5.4260000e+00   3.4724000e-03
   5.4270000e+00   3.4540000e-03
   5.4280000e+00   3.4417000e-03
   5.4290000e+00   3.4233000e-03
   5.4300000e+00   3.4049000e-03
   5.4310000e+00   3.3926000e-03
   5.4320000e+00   3.3742000e-03
   5.4330000e+00   3.3620000e-03
   5.4340000e+00   3.3497000e-03
   5.4350000e+00   3.3313000e-03
   5.4360000e+00   3.3190000e-03
   5.4370000e+00   3.3067000e-03
   5.4380000e+00   3.2883000e-03
   5.4390000e+00   3.2761000e-03
   5.4400000e+00   3.2638000e-03
   5.4410000e+00   3.2454000e-03
   5.4420000e+00   3.2331000e-03
   5.4430000e+00   3.2209000e-03
   5.4440000e+00   3.2086000e-03
   5.4450000e+00   3.1902000e-03
   5.4460000e+00   3.1779000e-03
   5.4470000e+00   3.1656000e-03
   5.4480000e+00   3.1534000e-03
   5.4490000e+00   3.1350000e-03
   5.4500000e+00   3.1227000e-03
   5.4510000e+00   3.1104000e-03
   5.4520000e+00   3.0982000e-03
   5.4530000e+00   3.0859000e-03
   5.4540000e+00   3.0736000e-03
   5.4550000e+00   3.0613000e-03
   5.4560000e+00   3.0429000e-03
   5.4570000e+00   3.0368000e-03
   5.4580000e+00   3.0245000e-03
   5.4590000e+00   3.0123000e-03
   5.4600000e+00   3.0000000e-03
   5.4610000e+00   2.9877000e-03
   5.4620000e+00   2.9755000e-03
   5.4630000e+00   2.9632000e-03
   5.4640000e+00   2.9509000e-03
   5.4650000e+00   2.9387000e-03
   5.4660000e+00   2.9264000e-03
   5.4670000e+00   2.9141000e-03
   5.4680000e+00   2.9018000e-03
   5.4690000e+00   2.8896000e-03
   5.4700000e+00   2.8773000e-03
   5.4710000e+00   2.8650000e-03
   5.4720000e+00   2.8528000e-03
   5.4730000e+00   2.8405000e-03
   5.4740000e+00   2.8344000e-03
   5.4750000e+00   2.8221000e-03
   5.4760000e+00   2.8098000e-03
   5.4770000e+00   2.7975000e-03
   5.4780000e+00   2.7914000e-03
   5.4790000e+00   2.7791000e-03
   5.4800000e+00   2.7669000e-03
   5.4810000e+00   2.7546000e-03
   5.4820000e+00   2.7485000e-03
   5.4830000e+00   2.7362000e-03
   5.4840000e+00   2.7239000e-03
   5.4850000e+00   2.7178000e-03
   5.4860000e+00   2.7055000e-03
   5.4870000e+00   2.6933000e-03
   5.4880000e+00   2.6810000e-03
   5.4890000e+00   2.6748000e-03
   5.4900000e+00   2.6626000e-03
   5.4910000e+00   2.6503000e-03
   5.4920000e+00   2.6380000e-03
   5.4930000e+00   2.6319000e-03
   5.4940000e+00   2.6196000e-03
   5.4950000e+00   2.6135000e-03
   5.4960000e+00   2.6012000e-03
   5.4970000e+00   2.5951000e-03
   5.4980000e+00   2.5828000e-03
   5.4990000e+00   2.5767000e-03
   5.5000000e+00   2.5644000e-03
   5.5010000e+00   2.5583000e-03
   5.5020000e+00   2.5460000e-03
   5.5030000e+00   2.5337000e-03
   5.5040000e+00   2.5276000e-03
   5.5050000e+00   2.5153000e-03
   5.5060000e+00   2.5092000e-03
   5.5070000e+00   2.4969000e-03
   5.5080000e+00   2.4908000e-03
   5.5090000e+00   2.4785000e-03
   5.5100000e+00   2.4724000e-03
   5.5110000e+00   2.4663000e-03
   5.5120000e+00   2.4540000e-03
   5.5130000e+00   2.4479000e-03
   5.5140000e+00   2.4417000e-03
   5.5150000e+00   2.4294000e-03
   5.5160000e+00   2.4233000e-03
   5.5170000e+00   2.4110000e-03
   5.5180000e+00   2.4049000e-03
   5.5190000e+00   2.3988000e-03
   5.5200000e+00   2.3865000e-03
   5.5210000e+00   2.3804000e-03
   5.5220000e+00   2.3681000e-03
   5.5230000e+00   2.3620000e-03
   5.5240000e+00   2.3497000e-03
   5.5250000e+00   2.3436000e-03
   5.5260000e+00   2.3313000e-03
   5.5270000e+00   2.3256000e-03
   5.5280000e+00   2.3179000e-03
   5.5290000e+00   2.3102000e-03
   5.5300000e+00   2.3024000e-03
   5.5310000e+00   2.2947000e-03
   5.5320000e+00   2.2867000e-03
   5.5330000e+00   2.2788000e-03
   5.5340000e+00   2.2708000e-03
   5.5350000e+00   2.2628000e-03
   5.5360000e+00   2.2548000e-03
   5.5370000e+00   2.2490000e-03
   5.5380000e+00   2.2433000e-03
   5.5390000e+00   2.2375000e-03
   5.5400000e+00   2.2317000e-03
   5.5410000e+00   2.2260000e-03
